<?xml version="1.0" encoding="iso-8859-1"?>
<svg id="mailbox" data-name="mailbox" xmlns="http://www.w3.org/2000/svg" viewBox="0 0 48 48">
	<title>mailbox</title>
	<path class="cls-1" d="M41,10H10V6h5a1,1,0,0,0,1-1V1a1,1,0,0,0-1-1H9A1,1,0,0,0,8,1v9H7a7,7,0,0,0-7,7V35a1,1,0,0,0,1,1H26V47a1,1,0,0,0,2,0V36H47a1,1,0,0,0,1-1V17A7,7,0,0,0,41,10ZM10,2h4V4H10ZM2,17a5,5,0,0,1,10,0V34H2ZM46,34H14V17a7,7,0,0,0-2.11-5H41a5,5,0,0,1,5,5Z" />
	<path class="cls-1" d="M9,30H5a1,1,0,0,0,0,2H9a1,1,0,0,0,0-2Z" />
</svg>
