<?xml version="1.0" encoding="iso-8859-1"?>
<svg id="home" data-name="home" xmlns="http://www.w3.org/2000/svg" viewBox="0 0 48 48">
	<title>home</title>
	<path class="cls-1" d="M41,26a1,1,0,0,0-1,1V45H30V31H18V45H8V26a1,1,0,0,0-2,0V47H20V33h8V47H42V27A1,1,0,0,0,41,26Z" />
	<path class="cls-1" d="M47.71,24.29l-23-23a1,1,0,0,0-1.41,0l-23,23a1,1,0,0,0,1.41,1.41L24,3.41,46.29,25.71a1,1,0,0,0,1.41-1.41Z" />
	<path class="cls-1" d="M32,5h6v6a1,1,0,0,0,2,0V3H32a1,1,0,0,0,0,2Z" />
</svg>
